-- Merging decision tree log ---
manifest
ADDED from /Users/zombie/Documents/stellar/evy-live/agora-live-demo/banuba/BNB sdk/Android/BNBEffectPlayer-android_docker-1.4.2/BNBEffectPlayer/src/offscreen/src/main/AndroidManifest.xml:2:1-72:12
INJECTED from /Users/zombie/Documents/stellar/evy-live/agora-live-demo/banuba/BNB sdk/Android/BNBEffectPlayer-android_docker-1.4.2/BNBEffectPlayer/src/offscreen/src/main/AndroidManifest.xml:2:1-72:12
INJECTED from /Users/zombie/Documents/stellar/evy-live/agora-live-demo/banuba/BNB sdk/Android/BNBEffectPlayer-android_docker-1.4.2/BNBEffectPlayer/src/offscreen/src/main/AndroidManifest.xml:2:1-72:12
INJECTED from /Users/zombie/Documents/stellar/evy-live/agora-live-demo/banuba/BNB sdk/Android/BNBEffectPlayer-android_docker-1.4.2/BNBEffectPlayer/src/offscreen/src/main/AndroidManifest.xml:2:1-72:12
MERGED from [:banuba_sdk] /Users/zombie/Documents/stellar/evy-live/agora-live-demo/banuba/BNB sdk/Android/BNBEffectPlayer-android_docker-1.4.2/BNBEffectPlayer/src/banuba_sdk/build/intermediates/merged_manifest/debug/AndroidManifest.xml:2:1-14:12
MERGED from [com.google.android.material:material:1.5.0] /Users/zombie/.gradle/caches/transforms-3/9c1edecc5c32bcbc9ef9a8228be22dad/transformed/material-1.5.0/AndroidManifest.xml:17:1-24:12
MERGED from [androidx.dynamicanimation:dynamicanimation:1.0.0] /Users/zombie/.gradle/caches/transforms-3/2e825c72f86d553c8a8278c05357ad27/transformed/dynamicanimation-1.0.0/AndroidManifest.xml:17:1-22:12
MERGED from [androidx.legacy:legacy-support-core-utils:1.0.0] /Users/zombie/.gradle/caches/transforms-3/7ac4b546261acb2d094711ab3cf0dc60/transformed/legacy-support-core-utils-1.0.0/AndroidManifest.xml:17:1-22:12
MERGED from [androidx.constraintlayout:constraintlayout:2.1.3] /Users/zombie/.gradle/caches/transforms-3/2bab510015cb6a2ee359692e38d1a67a/transformed/constraintlayout-2.1.3/AndroidManifest.xml:2:1-11:12
MERGED from [androidx.appcompat:appcompat:1.4.1] /Users/zombie/.gradle/caches/transforms-3/db2176efe4facc5864779fb5f259cd6b/transformed/appcompat-1.4.1/AndroidManifest.xml:17:1-24:12
MERGED from [androidx.viewpager2:viewpager2:1.0.0] /Users/zombie/.gradle/caches/transforms-3/5531810de437e56f3092bd2f4b779c0b/transformed/jetified-viewpager2-1.0.0/AndroidManifest.xml:17:1-24:12
MERGED from [androidx.fragment:fragment:1.3.6] /Users/zombie/.gradle/caches/transforms-3/e2df2932c59684826bd775c852f25abe/transformed/fragment-1.3.6/AndroidManifest.xml:17:1-24:12
MERGED from [androidx.activity:activity:1.2.4] /Users/zombie/.gradle/caches/transforms-3/11f0c1828527e2a25bec1f45c274816e/transformed/jetified-activity-1.2.4/AndroidManifest.xml:17:1-24:12
MERGED from [androidx.lifecycle:lifecycle-viewmodel-savedstate:2.3.1] /Users/zombie/.gradle/caches/transforms-3/d071ce6753ebee806a31546c8542e5a9/transformed/jetified-lifecycle-viewmodel-savedstate-2.3.1/AndroidManifest.xml:17:1-24:12
MERGED from [androidx.savedstate:savedstate:1.1.0] /Users/zombie/.gradle/caches/transforms-3/ea2454ebda3c89aa0a8850f2b3f3f4f9/transformed/jetified-savedstate-1.1.0/AndroidManifest.xml:17:1-24:12
MERGED from [androidx.loader:loader:1.0.0] /Users/zombie/.gradle/caches/transforms-3/bcbdf8711d4628a48fd71882abc1add3/transformed/loader-1.0.0/AndroidManifest.xml:17:1-22:12
MERGED from [androidx.lifecycle:lifecycle-livedata:2.0.0] /Users/zombie/.gradle/caches/transforms-3/470d7e4cf66effe16b7d233f152e4ea3/transformed/lifecycle-livedata-2.0.0/AndroidManifest.xml:17:1-22:12
MERGED from [androidx.lifecycle:lifecycle-livedata-core:2.3.1] /Users/zombie/.gradle/caches/transforms-3/568b2143f82ebc71a8fb2c67c1a4b402/transformed/lifecycle-livedata-core-2.3.1/AndroidManifest.xml:17:1-24:12
MERGED from [androidx.appcompat:appcompat-resources:1.4.1] /Users/zombie/.gradle/caches/transforms-3/97a455bcbf1510b7806fc0c22b838c3d/transformed/jetified-appcompat-resources-1.4.1/AndroidManifest.xml:17:1-24:12
MERGED from [androidx.emoji2:emoji2-views-helper:1.0.0] /Users/zombie/.gradle/caches/transforms-3/b85889f89e58d63e9e618ce931570164/transformed/jetified-emoji2-views-helper-1.0.0/AndroidManifest.xml:17:1-24:12
MERGED from [androidx.emoji2:emoji2:1.0.0] /Users/zombie/.gradle/caches/transforms-3/4fce621c3882bdffbcbea1f1dbc8cf44/transformed/jetified-emoji2-1.0.0/AndroidManifest.xml:17:1-37:12
MERGED from [androidx.drawerlayout:drawerlayout:1.1.1] /Users/zombie/.gradle/caches/transforms-3/3fdd2a5784d02ffb9720af8d61d0e25e/transformed/drawerlayout-1.1.1/AndroidManifest.xml:17:1-24:12
MERGED from [androidx.coordinatorlayout:coordinatorlayout:1.1.0] /Users/zombie/.gradle/caches/transforms-3/72f1edb86185d7afba81373b40b640ca/transformed/coordinatorlayout-1.1.0/AndroidManifest.xml:17:1-24:12
MERGED from [androidx.transition:transition:1.2.0] /Users/zombie/.gradle/caches/transforms-3/d6a072641cb0a272bda5566966213f30/transformed/transition-1.2.0/AndroidManifest.xml:17:1-24:12
MERGED from [androidx.vectordrawable:vectordrawable-animated:1.1.0] /Users/zombie/.gradle/caches/transforms-3/931b7ad8fbd8603fb774752e7a2826e3/transformed/vectordrawable-animated-1.1.0/AndroidManifest.xml:17:1-24:12
MERGED from [androidx.vectordrawable:vectordrawable:1.1.0] /Users/zombie/.gradle/caches/transforms-3/ead61f325e6c82de2a8a71d0f3868e51/transformed/vectordrawable-1.1.0/AndroidManifest.xml:17:1-24:12
MERGED from [androidx.viewpager:viewpager:1.0.0] /Users/zombie/.gradle/caches/transforms-3/734f7fbfd7a33e11057ec6d1cce24ba8/transformed/viewpager-1.0.0/AndroidManifest.xml:17:1-22:12
MERGED from [androidx.recyclerview:recyclerview:1.1.0] /Users/zombie/.gradle/caches/transforms-3/b4d66e64cbb1fe7be002321927572229/transformed/recyclerview-1.1.0/AndroidManifest.xml:17:1-24:12
MERGED from [androidx.customview:customview:1.1.0] /Users/zombie/.gradle/caches/transforms-3/f4b833d2605655b42812b3766bbd174a/transformed/customview-1.1.0/AndroidManifest.xml:17:1-24:12
MERGED from [androidx.core:core:1.7.0] /Users/zombie/.gradle/caches/transforms-3/5197fe32df92ece243b59dccb53a9028/transformed/core-1.7.0/AndroidManifest.xml:17:1-26:12
MERGED from [androidx.lifecycle:lifecycle-process:2.4.0] /Users/zombie/.gradle/caches/transforms-3/b65a18cbb51f5952c077585fa00f182b/transformed/jetified-lifecycle-process-2.4.0/AndroidManifest.xml:17:1-37:12
MERGED from [androidx.lifecycle:lifecycle-runtime:2.4.0] /Users/zombie/.gradle/caches/transforms-3/8539a295d9f384e21f0ee131ed05b667/transformed/lifecycle-runtime-2.4.0/AndroidManifest.xml:17:1-24:12
MERGED from [androidx.documentfile:documentfile:1.0.0] /Users/zombie/.gradle/caches/transforms-3/ba8eee7d7cf5b64fc50cb27953f2a0d7/transformed/documentfile-1.0.0/AndroidManifest.xml:17:1-22:12
MERGED from [androidx.localbroadcastmanager:localbroadcastmanager:1.0.0] /Users/zombie/.gradle/caches/transforms-3/c08aa4cda6e2cbe357fc007997d4a702/transformed/localbroadcastmanager-1.0.0/AndroidManifest.xml:17:1-22:12
MERGED from [androidx.print:print:1.0.0] /Users/zombie/.gradle/caches/transforms-3/69499e8304c4b04af572903ed4670a03/transformed/print-1.0.0/AndroidManifest.xml:17:1-22:12
MERGED from [androidx.cursoradapter:cursoradapter:1.0.0] /Users/zombie/.gradle/caches/transforms-3/405389479ea9f625bbd7861ccbd908f6/transformed/cursoradapter-1.0.0/AndroidManifest.xml:17:1-22:12
MERGED from [androidx.lifecycle:lifecycle-viewmodel:2.3.1] /Users/zombie/.gradle/caches/transforms-3/2dc5e85dc18394964f829402dc2ddb74/transformed/lifecycle-viewmodel-2.3.1/AndroidManifest.xml:17:1-24:12
MERGED from [androidx.cardview:cardview:1.0.0] /Users/zombie/.gradle/caches/transforms-3/82f440801e48e5455128c049c93955ec/transformed/cardview-1.0.0/AndroidManifest.xml:17:1-22:12
MERGED from [androidx.versionedparcelable:versionedparcelable:1.1.1] /Users/zombie/.gradle/caches/transforms-3/1cacc9c5cb09ad7f33ddfbb65e1a9031/transformed/versionedparcelable-1.1.1/AndroidManifest.xml:17:1-27:12
MERGED from [androidx.startup:startup-runtime:1.0.0] /Users/zombie/.gradle/caches/transforms-3/610d0c737f3a947c23fe0c5b3a27fced/transformed/jetified-startup-runtime-1.0.0/AndroidManifest.xml:17:1-33:12
MERGED from [androidx.tracing:tracing:1.0.0] /Users/zombie/.gradle/caches/transforms-3/9a2102b4b5418647a155757962b3bc0d/transformed/jetified-tracing-1.0.0/AndroidManifest.xml:17:1-24:12
MERGED from [androidx.arch.core:core-runtime:2.1.0] /Users/zombie/.gradle/caches/transforms-3/8840fd1a06a5d480a85c1fbe7caf68f1/transformed/core-runtime-2.1.0/AndroidManifest.xml:17:1-24:12
MERGED from [androidx.interpolator:interpolator:1.0.0] /Users/zombie/.gradle/caches/transforms-3/bffecc3ff0a15b9545391213a00f29ef/transformed/interpolator-1.0.0/AndroidManifest.xml:17:1-22:12
MERGED from [:banuba_effect_player] /Users/zombie/Documents/stellar/evy-live/agora-live-demo/banuba/BNB sdk/Android/BNBEffectPlayer-android_docker-1.4.2/BNBEffectPlayer/src/banuba_effect_player/build/.transforms/ee04396ccdeb7198a414951b0c1977d0/transformed/jetified-banuba_effect_player-release/AndroidManifest.xml:2:1-9:12
MERGED from [androidx.annotation:annotation-experimental:1.1.0] /Users/zombie/.gradle/caches/transforms-3/33370bcd2039e7617af68730e87fb55c/transformed/jetified-annotation-experimental-1.1.0/AndroidManifest.xml:17:1-24:12
INJECTED from /Users/zombie/Documents/stellar/evy-live/agora-live-demo/banuba/BNB sdk/Android/BNBEffectPlayer-android_docker-1.4.2/BNBEffectPlayer/src/offscreen/src/main/AndroidManifest.xml:2:1-72:12
INJECTED from /Users/zombie/Documents/stellar/evy-live/agora-live-demo/banuba/BNB sdk/Android/BNBEffectPlayer-android_docker-1.4.2/BNBEffectPlayer/src/offscreen/src/main/AndroidManifest.xml:2:1-72:12
INJECTED from /Users/zombie/Documents/stellar/evy-live/agora-live-demo/banuba/BNB sdk/Android/BNBEffectPlayer-android_docker-1.4.2/BNBEffectPlayer/src/offscreen/src/main/AndroidManifest.xml:2:1-72:12
	package
		ADDED from /Users/zombie/Documents/stellar/evy-live/agora-live-demo/banuba/BNB sdk/Android/BNBEffectPlayer-android_docker-1.4.2/BNBEffectPlayer/src/offscreen/src/main/AndroidManifest.xml:4:5-35
		INJECTED from /Users/zombie/Documents/stellar/evy-live/agora-live-demo/banuba/BNB sdk/Android/BNBEffectPlayer-android_docker-1.4.2/BNBEffectPlayer/src/offscreen/src/main/AndroidManifest.xml
		INJECTED from /Users/zombie/Documents/stellar/evy-live/agora-live-demo/banuba/BNB sdk/Android/BNBEffectPlayer-android_docker-1.4.2/BNBEffectPlayer/src/offscreen/src/main/AndroidManifest.xml
	android:versionName
		INJECTED from /Users/zombie/Documents/stellar/evy-live/agora-live-demo/banuba/BNB sdk/Android/BNBEffectPlayer-android_docker-1.4.2/BNBEffectPlayer/src/offscreen/src/main/AndroidManifest.xml
		ADDED from /Users/zombie/Documents/stellar/evy-live/agora-live-demo/banuba/BNB sdk/Android/BNBEffectPlayer-android_docker-1.4.2/BNBEffectPlayer/src/offscreen/src/main/AndroidManifest.xml:2:1-72:12
		INJECTED from /Users/zombie/Documents/stellar/evy-live/agora-live-demo/banuba/BNB sdk/Android/BNBEffectPlayer-android_docker-1.4.2/BNBEffectPlayer/src/offscreen/src/main/AndroidManifest.xml
	xmlns:tools
		ADDED from /Users/zombie/Documents/stellar/evy-live/agora-live-demo/banuba/BNB sdk/Android/BNBEffectPlayer-android_docker-1.4.2/BNBEffectPlayer/src/offscreen/src/main/AndroidManifest.xml:3:5-51
	android:versionCode
		INJECTED from /Users/zombie/Documents/stellar/evy-live/agora-live-demo/banuba/BNB sdk/Android/BNBEffectPlayer-android_docker-1.4.2/BNBEffectPlayer/src/offscreen/src/main/AndroidManifest.xml
		ADDED from /Users/zombie/Documents/stellar/evy-live/agora-live-demo/banuba/BNB sdk/Android/BNBEffectPlayer-android_docker-1.4.2/BNBEffectPlayer/src/offscreen/src/main/AndroidManifest.xml:2:1-72:12
		INJECTED from /Users/zombie/Documents/stellar/evy-live/agora-live-demo/banuba/BNB sdk/Android/BNBEffectPlayer-android_docker-1.4.2/BNBEffectPlayer/src/offscreen/src/main/AndroidManifest.xml
	xmlns:android
		ADDED from /Users/zombie/Documents/stellar/evy-live/agora-live-demo/banuba/BNB sdk/Android/BNBEffectPlayer-android_docker-1.4.2/BNBEffectPlayer/src/offscreen/src/main/AndroidManifest.xml:2:11-69
application
ADDED from /Users/zombie/Documents/stellar/evy-live/agora-live-demo/banuba/BNB sdk/Android/BNBEffectPlayer-android_docker-1.4.2/BNBEffectPlayer/src/offscreen/src/main/AndroidManifest.xml:6:5-70:19
MERGED from [com.google.android.material:material:1.5.0] /Users/zombie/.gradle/caches/transforms-3/9c1edecc5c32bcbc9ef9a8228be22dad/transformed/material-1.5.0/AndroidManifest.xml:22:5-20
MERGED from [com.google.android.material:material:1.5.0] /Users/zombie/.gradle/caches/transforms-3/9c1edecc5c32bcbc9ef9a8228be22dad/transformed/material-1.5.0/AndroidManifest.xml:22:5-20
MERGED from [androidx.constraintlayout:constraintlayout:2.1.3] /Users/zombie/.gradle/caches/transforms-3/2bab510015cb6a2ee359692e38d1a67a/transformed/constraintlayout-2.1.3/AndroidManifest.xml:9:5-20
MERGED from [androidx.constraintlayout:constraintlayout:2.1.3] /Users/zombie/.gradle/caches/transforms-3/2bab510015cb6a2ee359692e38d1a67a/transformed/constraintlayout-2.1.3/AndroidManifest.xml:9:5-20
MERGED from [androidx.emoji2:emoji2:1.0.0] /Users/zombie/.gradle/caches/transforms-3/4fce621c3882bdffbcbea1f1dbc8cf44/transformed/jetified-emoji2-1.0.0/AndroidManifest.xml:25:5-35:19
MERGED from [androidx.emoji2:emoji2:1.0.0] /Users/zombie/.gradle/caches/transforms-3/4fce621c3882bdffbcbea1f1dbc8cf44/transformed/jetified-emoji2-1.0.0/AndroidManifest.xml:25:5-35:19
MERGED from [androidx.core:core:1.7.0] /Users/zombie/.gradle/caches/transforms-3/5197fe32df92ece243b59dccb53a9028/transformed/core-1.7.0/AndroidManifest.xml:24:5-89
MERGED from [androidx.core:core:1.7.0] /Users/zombie/.gradle/caches/transforms-3/5197fe32df92ece243b59dccb53a9028/transformed/core-1.7.0/AndroidManifest.xml:24:5-89
MERGED from [androidx.lifecycle:lifecycle-process:2.4.0] /Users/zombie/.gradle/caches/transforms-3/b65a18cbb51f5952c077585fa00f182b/transformed/jetified-lifecycle-process-2.4.0/AndroidManifest.xml:25:5-35:19
MERGED from [androidx.lifecycle:lifecycle-process:2.4.0] /Users/zombie/.gradle/caches/transforms-3/b65a18cbb51f5952c077585fa00f182b/transformed/jetified-lifecycle-process-2.4.0/AndroidManifest.xml:25:5-35:19
MERGED from [androidx.versionedparcelable:versionedparcelable:1.1.1] /Users/zombie/.gradle/caches/transforms-3/1cacc9c5cb09ad7f33ddfbb65e1a9031/transformed/versionedparcelable-1.1.1/AndroidManifest.xml:24:5-25:19
MERGED from [androidx.versionedparcelable:versionedparcelable:1.1.1] /Users/zombie/.gradle/caches/transforms-3/1cacc9c5cb09ad7f33ddfbb65e1a9031/transformed/versionedparcelable-1.1.1/AndroidManifest.xml:24:5-25:19
MERGED from [androidx.startup:startup-runtime:1.0.0] /Users/zombie/.gradle/caches/transforms-3/610d0c737f3a947c23fe0c5b3a27fced/transformed/jetified-startup-runtime-1.0.0/AndroidManifest.xml:25:5-31:19
MERGED from [androidx.startup:startup-runtime:1.0.0] /Users/zombie/.gradle/caches/transforms-3/610d0c737f3a947c23fe0c5b3a27fced/transformed/jetified-startup-runtime-1.0.0/AndroidManifest.xml:25:5-31:19
	android:requestLegacyExternalStorage
		ADDED from /Users/zombie/Documents/stellar/evy-live/agora-live-demo/banuba/BNB sdk/Android/BNBEffectPlayer-android_docker-1.4.2/BNBEffectPlayer/src/offscreen/src/main/AndroidManifest.xml:11:9-52
	android:appComponentFactory
		ADDED from [androidx.core:core:1.7.0] /Users/zombie/.gradle/caches/transforms-3/5197fe32df92ece243b59dccb53a9028/transformed/core-1.7.0/AndroidManifest.xml:24:18-86
	android:supportsRtl
		ADDED from /Users/zombie/Documents/stellar/evy-live/agora-live-demo/banuba/BNB sdk/Android/BNBEffectPlayer-android_docker-1.4.2/BNBEffectPlayer/src/offscreen/src/main/AndroidManifest.xml:13:9-35
	android:label
		ADDED from /Users/zombie/Documents/stellar/evy-live/agora-live-demo/banuba/BNB sdk/Android/BNBEffectPlayer-android_docker-1.4.2/BNBEffectPlayer/src/offscreen/src/main/AndroidManifest.xml:10:9-41
	android:roundIcon
		ADDED from /Users/zombie/Documents/stellar/evy-live/agora-live-demo/banuba/BNB sdk/Android/BNBEffectPlayer-android_docker-1.4.2/BNBEffectPlayer/src/offscreen/src/main/AndroidManifest.xml:12:9-54
	android:icon
		ADDED from /Users/zombie/Documents/stellar/evy-live/agora-live-demo/banuba/BNB sdk/Android/BNBEffectPlayer-android_docker-1.4.2/BNBEffectPlayer/src/offscreen/src/main/AndroidManifest.xml:9:9-43
	android:allowBackup
		ADDED from /Users/zombie/Documents/stellar/evy-live/agora-live-demo/banuba/BNB sdk/Android/BNBEffectPlayer-android_docker-1.4.2/BNBEffectPlayer/src/offscreen/src/main/AndroidManifest.xml:8:9-36
	android:theme
		ADDED from /Users/zombie/Documents/stellar/evy-live/agora-live-demo/banuba/BNB sdk/Android/BNBEffectPlayer-android_docker-1.4.2/BNBEffectPlayer/src/offscreen/src/main/AndroidManifest.xml:14:9-57
	android:name
		ADDED from /Users/zombie/Documents/stellar/evy-live/agora-live-demo/banuba/BNB sdk/Android/BNBEffectPlayer-android_docker-1.4.2/BNBEffectPlayer/src/offscreen/src/main/AndroidManifest.xml:7:9-44
activity#com.banuba.offscreen.app.MainActivity
ADDED from /Users/zombie/Documents/stellar/evy-live/agora-live-demo/banuba/BNB sdk/Android/BNBEffectPlayer-android_docker-1.4.2/BNBEffectPlayer/src/offscreen/src/main/AndroidManifest.xml:15:9-25:20
	android:screenOrientation
		ADDED from /Users/zombie/Documents/stellar/evy-live/agora-live-demo/banuba/BNB sdk/Android/BNBEffectPlayer-android_docker-1.4.2/BNBEffectPlayer/src/offscreen/src/main/AndroidManifest.xml:18:13-49
	android:exported
		ADDED from /Users/zombie/Documents/stellar/evy-live/agora-live-demo/banuba/BNB sdk/Android/BNBEffectPlayer-android_docker-1.4.2/BNBEffectPlayer/src/offscreen/src/main/AndroidManifest.xml:17:13-36
	tools:ignore
		ADDED from /Users/zombie/Documents/stellar/evy-live/agora-live-demo/banuba/BNB sdk/Android/BNBEffectPlayer-android_docker-1.4.2/BNBEffectPlayer/src/offscreen/src/main/AndroidManifest.xml:19:13-53
	android:name
		ADDED from /Users/zombie/Documents/stellar/evy-live/agora-live-demo/banuba/BNB sdk/Android/BNBEffectPlayer-android_docker-1.4.2/BNBEffectPlayer/src/offscreen/src/main/AndroidManifest.xml:16:13-65
intent-filter#action:name:android.intent.action.MAIN+category:name:android.intent.category.LAUNCHER
ADDED from /Users/zombie/Documents/stellar/evy-live/agora-live-demo/banuba/BNB sdk/Android/BNBEffectPlayer-android_docker-1.4.2/BNBEffectPlayer/src/offscreen/src/main/AndroidManifest.xml:20:13-24:29
action#android.intent.action.MAIN
ADDED from /Users/zombie/Documents/stellar/evy-live/agora-live-demo/banuba/BNB sdk/Android/BNBEffectPlayer-android_docker-1.4.2/BNBEffectPlayer/src/offscreen/src/main/AndroidManifest.xml:21:17-69
	android:name
		ADDED from /Users/zombie/Documents/stellar/evy-live/agora-live-demo/banuba/BNB sdk/Android/BNBEffectPlayer-android_docker-1.4.2/BNBEffectPlayer/src/offscreen/src/main/AndroidManifest.xml:21:25-66
category#android.intent.category.LAUNCHER
ADDED from /Users/zombie/Documents/stellar/evy-live/agora-live-demo/banuba/BNB sdk/Android/BNBEffectPlayer-android_docker-1.4.2/BNBEffectPlayer/src/offscreen/src/main/AndroidManifest.xml:23:17-77
	android:name
		ADDED from /Users/zombie/Documents/stellar/evy-live/agora-live-demo/banuba/BNB sdk/Android/BNBEffectPlayer-android_docker-1.4.2/BNBEffectPlayer/src/offscreen/src/main/AndroidManifest.xml:23:27-74
activity#com.banuba.offscreen.app.CameraActivityBuffersPortrait
ADDED from /Users/zombie/Documents/stellar/evy-live/agora-live-demo/banuba/BNB sdk/Android/BNBEffectPlayer-android_docker-1.4.2/BNBEffectPlayer/src/offscreen/src/main/AndroidManifest.xml:27:9-32:56
	android:screenOrientation
		ADDED from /Users/zombie/Documents/stellar/evy-live/agora-live-demo/banuba/BNB sdk/Android/BNBEffectPlayer-android_docker-1.4.2/BNBEffectPlayer/src/offscreen/src/main/AndroidManifest.xml:30:13-49
	tools:ignore
		ADDED from /Users/zombie/Documents/stellar/evy-live/agora-live-demo/banuba/BNB sdk/Android/BNBEffectPlayer-android_docker-1.4.2/BNBEffectPlayer/src/offscreen/src/main/AndroidManifest.xml:32:13-53
	android:configChanges
		ADDED from /Users/zombie/Documents/stellar/evy-live/agora-live-demo/banuba/BNB sdk/Android/BNBEffectPlayer-android_docker-1.4.2/BNBEffectPlayer/src/offscreen/src/main/AndroidManifest.xml:29:13-72
	android:theme
		ADDED from /Users/zombie/Documents/stellar/evy-live/agora-live-demo/banuba/BNB sdk/Android/BNBEffectPlayer-android_docker-1.4.2/BNBEffectPlayer/src/offscreen/src/main/AndroidManifest.xml:31:13-72
	android:name
		ADDED from /Users/zombie/Documents/stellar/evy-live/agora-live-demo/banuba/BNB sdk/Android/BNBEffectPlayer-android_docker-1.4.2/BNBEffectPlayer/src/offscreen/src/main/AndroidManifest.xml:28:13-62
activity#com.banuba.offscreen.app.CameraActivityBuffersFullSensor
ADDED from /Users/zombie/Documents/stellar/evy-live/agora-live-demo/banuba/BNB sdk/Android/BNBEffectPlayer-android_docker-1.4.2/BNBEffectPlayer/src/offscreen/src/main/AndroidManifest.xml:34:9-38:75
	android:screenOrientation
		ADDED from /Users/zombie/Documents/stellar/evy-live/agora-live-demo/banuba/BNB sdk/Android/BNBEffectPlayer-android_docker-1.4.2/BNBEffectPlayer/src/offscreen/src/main/AndroidManifest.xml:37:13-51
	android:configChanges
		ADDED from /Users/zombie/Documents/stellar/evy-live/agora-live-demo/banuba/BNB sdk/Android/BNBEffectPlayer-android_docker-1.4.2/BNBEffectPlayer/src/offscreen/src/main/AndroidManifest.xml:36:13-72
	android:theme
		ADDED from /Users/zombie/Documents/stellar/evy-live/agora-live-demo/banuba/BNB sdk/Android/BNBEffectPlayer-android_docker-1.4.2/BNBEffectPlayer/src/offscreen/src/main/AndroidManifest.xml:38:13-72
	android:name
		ADDED from /Users/zombie/Documents/stellar/evy-live/agora-live-demo/banuba/BNB sdk/Android/BNBEffectPlayer-android_docker-1.4.2/BNBEffectPlayer/src/offscreen/src/main/AndroidManifest.xml:35:13-64
activity#com.banuba.offscreen.app.CameraActivityBuffersDefault
ADDED from /Users/zombie/Documents/stellar/evy-live/agora-live-demo/banuba/BNB sdk/Android/BNBEffectPlayer-android_docker-1.4.2/BNBEffectPlayer/src/offscreen/src/main/AndroidManifest.xml:40:9-44:75
	android:screenOrientation
		ADDED from /Users/zombie/Documents/stellar/evy-live/agora-live-demo/banuba/BNB sdk/Android/BNBEffectPlayer-android_docker-1.4.2/BNBEffectPlayer/src/offscreen/src/main/AndroidManifest.xml:43:13-52
	android:configChanges
		ADDED from /Users/zombie/Documents/stellar/evy-live/agora-live-demo/banuba/BNB sdk/Android/BNBEffectPlayer-android_docker-1.4.2/BNBEffectPlayer/src/offscreen/src/main/AndroidManifest.xml:42:13-72
	android:theme
		ADDED from /Users/zombie/Documents/stellar/evy-live/agora-live-demo/banuba/BNB sdk/Android/BNBEffectPlayer-android_docker-1.4.2/BNBEffectPlayer/src/offscreen/src/main/AndroidManifest.xml:44:13-72
	android:name
		ADDED from /Users/zombie/Documents/stellar/evy-live/agora-live-demo/banuba/BNB sdk/Android/BNBEffectPlayer-android_docker-1.4.2/BNBEffectPlayer/src/offscreen/src/main/AndroidManifest.xml:41:13-61
activity#com.banuba.offscreen.app.CameraActivitySurfacePortrait
ADDED from /Users/zombie/Documents/stellar/evy-live/agora-live-demo/banuba/BNB sdk/Android/BNBEffectPlayer-android_docker-1.4.2/BNBEffectPlayer/src/offscreen/src/main/AndroidManifest.xml:46:9-50:75
	android:screenOrientation
		ADDED from /Users/zombie/Documents/stellar/evy-live/agora-live-demo/banuba/BNB sdk/Android/BNBEffectPlayer-android_docker-1.4.2/BNBEffectPlayer/src/offscreen/src/main/AndroidManifest.xml:49:13-49
	android:configChanges
		ADDED from /Users/zombie/Documents/stellar/evy-live/agora-live-demo/banuba/BNB sdk/Android/BNBEffectPlayer-android_docker-1.4.2/BNBEffectPlayer/src/offscreen/src/main/AndroidManifest.xml:48:13-72
	android:theme
		ADDED from /Users/zombie/Documents/stellar/evy-live/agora-live-demo/banuba/BNB sdk/Android/BNBEffectPlayer-android_docker-1.4.2/BNBEffectPlayer/src/offscreen/src/main/AndroidManifest.xml:50:13-72
	android:name
		ADDED from /Users/zombie/Documents/stellar/evy-live/agora-live-demo/banuba/BNB sdk/Android/BNBEffectPlayer-android_docker-1.4.2/BNBEffectPlayer/src/offscreen/src/main/AndroidManifest.xml:47:13-62
activity#com.banuba.offscreen.app.CameraActivitySurfaceFullSensor
ADDED from /Users/zombie/Documents/stellar/evy-live/agora-live-demo/banuba/BNB sdk/Android/BNBEffectPlayer-android_docker-1.4.2/BNBEffectPlayer/src/offscreen/src/main/AndroidManifest.xml:52:9-56:75
	android:screenOrientation
		ADDED from /Users/zombie/Documents/stellar/evy-live/agora-live-demo/banuba/BNB sdk/Android/BNBEffectPlayer-android_docker-1.4.2/BNBEffectPlayer/src/offscreen/src/main/AndroidManifest.xml:55:13-51
	android:configChanges
		ADDED from /Users/zombie/Documents/stellar/evy-live/agora-live-demo/banuba/BNB sdk/Android/BNBEffectPlayer-android_docker-1.4.2/BNBEffectPlayer/src/offscreen/src/main/AndroidManifest.xml:54:13-72
	android:theme
		ADDED from /Users/zombie/Documents/stellar/evy-live/agora-live-demo/banuba/BNB sdk/Android/BNBEffectPlayer-android_docker-1.4.2/BNBEffectPlayer/src/offscreen/src/main/AndroidManifest.xml:56:13-72
	android:name
		ADDED from /Users/zombie/Documents/stellar/evy-live/agora-live-demo/banuba/BNB sdk/Android/BNBEffectPlayer-android_docker-1.4.2/BNBEffectPlayer/src/offscreen/src/main/AndroidManifest.xml:53:13-64
activity#com.banuba.offscreen.app.CameraActivitySurfaceDefault
ADDED from /Users/zombie/Documents/stellar/evy-live/agora-live-demo/banuba/BNB sdk/Android/BNBEffectPlayer-android_docker-1.4.2/BNBEffectPlayer/src/offscreen/src/main/AndroidManifest.xml:58:9-62:75
	android:screenOrientation
		ADDED from /Users/zombie/Documents/stellar/evy-live/agora-live-demo/banuba/BNB sdk/Android/BNBEffectPlayer-android_docker-1.4.2/BNBEffectPlayer/src/offscreen/src/main/AndroidManifest.xml:61:13-52
	android:configChanges
		ADDED from /Users/zombie/Documents/stellar/evy-live/agora-live-demo/banuba/BNB sdk/Android/BNBEffectPlayer-android_docker-1.4.2/BNBEffectPlayer/src/offscreen/src/main/AndroidManifest.xml:60:13-72
	android:theme
		ADDED from /Users/zombie/Documents/stellar/evy-live/agora-live-demo/banuba/BNB sdk/Android/BNBEffectPlayer-android_docker-1.4.2/BNBEffectPlayer/src/offscreen/src/main/AndroidManifest.xml:62:13-72
	android:name
		ADDED from /Users/zombie/Documents/stellar/evy-live/agora-live-demo/banuba/BNB sdk/Android/BNBEffectPlayer-android_docker-1.4.2/BNBEffectPlayer/src/offscreen/src/main/AndroidManifest.xml:59:13-61
activity#com.banuba.offscreen.app.CameraActivityTestBackground
ADDED from /Users/zombie/Documents/stellar/evy-live/agora-live-demo/banuba/BNB sdk/Android/BNBEffectPlayer-android_docker-1.4.2/BNBEffectPlayer/src/offscreen/src/main/AndroidManifest.xml:64:9-68:75
	android:screenOrientation
		ADDED from /Users/zombie/Documents/stellar/evy-live/agora-live-demo/banuba/BNB sdk/Android/BNBEffectPlayer-android_docker-1.4.2/BNBEffectPlayer/src/offscreen/src/main/AndroidManifest.xml:67:13-49
	android:configChanges
		ADDED from /Users/zombie/Documents/stellar/evy-live/agora-live-demo/banuba/BNB sdk/Android/BNBEffectPlayer-android_docker-1.4.2/BNBEffectPlayer/src/offscreen/src/main/AndroidManifest.xml:66:13-72
	android:theme
		ADDED from /Users/zombie/Documents/stellar/evy-live/agora-live-demo/banuba/BNB sdk/Android/BNBEffectPlayer-android_docker-1.4.2/BNBEffectPlayer/src/offscreen/src/main/AndroidManifest.xml:68:13-72
	android:name
		ADDED from /Users/zombie/Documents/stellar/evy-live/agora-live-demo/banuba/BNB sdk/Android/BNBEffectPlayer-android_docker-1.4.2/BNBEffectPlayer/src/offscreen/src/main/AndroidManifest.xml:65:13-61
uses-sdk
INJECTED from /Users/zombie/Documents/stellar/evy-live/agora-live-demo/banuba/BNB sdk/Android/BNBEffectPlayer-android_docker-1.4.2/BNBEffectPlayer/src/offscreen/src/main/AndroidManifest.xml reason: use-sdk injection requested
INJECTED from /Users/zombie/Documents/stellar/evy-live/agora-live-demo/banuba/BNB sdk/Android/BNBEffectPlayer-android_docker-1.4.2/BNBEffectPlayer/src/offscreen/src/main/AndroidManifest.xml
INJECTED from /Users/zombie/Documents/stellar/evy-live/agora-live-demo/banuba/BNB sdk/Android/BNBEffectPlayer-android_docker-1.4.2/BNBEffectPlayer/src/offscreen/src/main/AndroidManifest.xml
MERGED from [:banuba_sdk] /Users/zombie/Documents/stellar/evy-live/agora-live-demo/banuba/BNB sdk/Android/BNBEffectPlayer-android_docker-1.4.2/BNBEffectPlayer/src/banuba_sdk/build/intermediates/merged_manifest/debug/AndroidManifest.xml:5:5-7:41
MERGED from [:banuba_sdk] /Users/zombie/Documents/stellar/evy-live/agora-live-demo/banuba/BNB sdk/Android/BNBEffectPlayer-android_docker-1.4.2/BNBEffectPlayer/src/banuba_sdk/build/intermediates/merged_manifest/debug/AndroidManifest.xml:5:5-7:41
MERGED from [com.google.android.material:material:1.5.0] /Users/zombie/.gradle/caches/transforms-3/9c1edecc5c32bcbc9ef9a8228be22dad/transformed/material-1.5.0/AndroidManifest.xml:20:5-44
MERGED from [com.google.android.material:material:1.5.0] /Users/zombie/.gradle/caches/transforms-3/9c1edecc5c32bcbc9ef9a8228be22dad/transformed/material-1.5.0/AndroidManifest.xml:20:5-44
MERGED from [androidx.dynamicanimation:dynamicanimation:1.0.0] /Users/zombie/.gradle/caches/transforms-3/2e825c72f86d553c8a8278c05357ad27/transformed/dynamicanimation-1.0.0/AndroidManifest.xml:20:5-44
MERGED from [androidx.dynamicanimation:dynamicanimation:1.0.0] /Users/zombie/.gradle/caches/transforms-3/2e825c72f86d553c8a8278c05357ad27/transformed/dynamicanimation-1.0.0/AndroidManifest.xml:20:5-44
MERGED from [androidx.legacy:legacy-support-core-utils:1.0.0] /Users/zombie/.gradle/caches/transforms-3/7ac4b546261acb2d094711ab3cf0dc60/transformed/legacy-support-core-utils-1.0.0/AndroidManifest.xml:20:5-44
MERGED from [androidx.legacy:legacy-support-core-utils:1.0.0] /Users/zombie/.gradle/caches/transforms-3/7ac4b546261acb2d094711ab3cf0dc60/transformed/legacy-support-core-utils-1.0.0/AndroidManifest.xml:20:5-44
MERGED from [androidx.constraintlayout:constraintlayout:2.1.3] /Users/zombie/.gradle/caches/transforms-3/2bab510015cb6a2ee359692e38d1a67a/transformed/constraintlayout-2.1.3/AndroidManifest.xml:5:5-7:41
MERGED from [androidx.constraintlayout:constraintlayout:2.1.3] /Users/zombie/.gradle/caches/transforms-3/2bab510015cb6a2ee359692e38d1a67a/transformed/constraintlayout-2.1.3/AndroidManifest.xml:5:5-7:41
MERGED from [androidx.appcompat:appcompat:1.4.1] /Users/zombie/.gradle/caches/transforms-3/db2176efe4facc5864779fb5f259cd6b/transformed/appcompat-1.4.1/AndroidManifest.xml:20:5-22:41
MERGED from [androidx.appcompat:appcompat:1.4.1] /Users/zombie/.gradle/caches/transforms-3/db2176efe4facc5864779fb5f259cd6b/transformed/appcompat-1.4.1/AndroidManifest.xml:20:5-22:41
MERGED from [androidx.viewpager2:viewpager2:1.0.0] /Users/zombie/.gradle/caches/transforms-3/5531810de437e56f3092bd2f4b779c0b/transformed/jetified-viewpager2-1.0.0/AndroidManifest.xml:20:5-22:41
MERGED from [androidx.viewpager2:viewpager2:1.0.0] /Users/zombie/.gradle/caches/transforms-3/5531810de437e56f3092bd2f4b779c0b/transformed/jetified-viewpager2-1.0.0/AndroidManifest.xml:20:5-22:41
MERGED from [androidx.fragment:fragment:1.3.6] /Users/zombie/.gradle/caches/transforms-3/e2df2932c59684826bd775c852f25abe/transformed/fragment-1.3.6/AndroidManifest.xml:20:5-22:41
MERGED from [androidx.fragment:fragment:1.3.6] /Users/zombie/.gradle/caches/transforms-3/e2df2932c59684826bd775c852f25abe/transformed/fragment-1.3.6/AndroidManifest.xml:20:5-22:41
MERGED from [androidx.activity:activity:1.2.4] /Users/zombie/.gradle/caches/transforms-3/11f0c1828527e2a25bec1f45c274816e/transformed/jetified-activity-1.2.4/AndroidManifest.xml:20:5-22:41
MERGED from [androidx.activity:activity:1.2.4] /Users/zombie/.gradle/caches/transforms-3/11f0c1828527e2a25bec1f45c274816e/transformed/jetified-activity-1.2.4/AndroidManifest.xml:20:5-22:41
MERGED from [androidx.lifecycle:lifecycle-viewmodel-savedstate:2.3.1] /Users/zombie/.gradle/caches/transforms-3/d071ce6753ebee806a31546c8542e5a9/transformed/jetified-lifecycle-viewmodel-savedstate-2.3.1/AndroidManifest.xml:20:5-22:41
MERGED from [androidx.lifecycle:lifecycle-viewmodel-savedstate:2.3.1] /Users/zombie/.gradle/caches/transforms-3/d071ce6753ebee806a31546c8542e5a9/transformed/jetified-lifecycle-viewmodel-savedstate-2.3.1/AndroidManifest.xml:20:5-22:41
MERGED from [androidx.savedstate:savedstate:1.1.0] /Users/zombie/.gradle/caches/transforms-3/ea2454ebda3c89aa0a8850f2b3f3f4f9/transformed/jetified-savedstate-1.1.0/AndroidManifest.xml:20:5-22:41
MERGED from [androidx.savedstate:savedstate:1.1.0] /Users/zombie/.gradle/caches/transforms-3/ea2454ebda3c89aa0a8850f2b3f3f4f9/transformed/jetified-savedstate-1.1.0/AndroidManifest.xml:20:5-22:41
MERGED from [androidx.loader:loader:1.0.0] /Users/zombie/.gradle/caches/transforms-3/bcbdf8711d4628a48fd71882abc1add3/transformed/loader-1.0.0/AndroidManifest.xml:20:5-44
MERGED from [androidx.loader:loader:1.0.0] /Users/zombie/.gradle/caches/transforms-3/bcbdf8711d4628a48fd71882abc1add3/transformed/loader-1.0.0/AndroidManifest.xml:20:5-44
MERGED from [androidx.lifecycle:lifecycle-livedata:2.0.0] /Users/zombie/.gradle/caches/transforms-3/470d7e4cf66effe16b7d233f152e4ea3/transformed/lifecycle-livedata-2.0.0/AndroidManifest.xml:20:5-44
MERGED from [androidx.lifecycle:lifecycle-livedata:2.0.0] /Users/zombie/.gradle/caches/transforms-3/470d7e4cf66effe16b7d233f152e4ea3/transformed/lifecycle-livedata-2.0.0/AndroidManifest.xml:20:5-44
MERGED from [androidx.lifecycle:lifecycle-livedata-core:2.3.1] /Users/zombie/.gradle/caches/transforms-3/568b2143f82ebc71a8fb2c67c1a4b402/transformed/lifecycle-livedata-core-2.3.1/AndroidManifest.xml:20:5-22:41
MERGED from [androidx.lifecycle:lifecycle-livedata-core:2.3.1] /Users/zombie/.gradle/caches/transforms-3/568b2143f82ebc71a8fb2c67c1a4b402/transformed/lifecycle-livedata-core-2.3.1/AndroidManifest.xml:20:5-22:41
MERGED from [androidx.appcompat:appcompat-resources:1.4.1] /Users/zombie/.gradle/caches/transforms-3/97a455bcbf1510b7806fc0c22b838c3d/transformed/jetified-appcompat-resources-1.4.1/AndroidManifest.xml:20:5-22:41
MERGED from [androidx.appcompat:appcompat-resources:1.4.1] /Users/zombie/.gradle/caches/transforms-3/97a455bcbf1510b7806fc0c22b838c3d/transformed/jetified-appcompat-resources-1.4.1/AndroidManifest.xml:20:5-22:41
MERGED from [androidx.emoji2:emoji2-views-helper:1.0.0] /Users/zombie/.gradle/caches/transforms-3/b85889f89e58d63e9e618ce931570164/transformed/jetified-emoji2-views-helper-1.0.0/AndroidManifest.xml:20:5-22:41
MERGED from [androidx.emoji2:emoji2-views-helper:1.0.0] /Users/zombie/.gradle/caches/transforms-3/b85889f89e58d63e9e618ce931570164/transformed/jetified-emoji2-views-helper-1.0.0/AndroidManifest.xml:20:5-22:41
MERGED from [androidx.emoji2:emoji2:1.0.0] /Users/zombie/.gradle/caches/transforms-3/4fce621c3882bdffbcbea1f1dbc8cf44/transformed/jetified-emoji2-1.0.0/AndroidManifest.xml:21:5-23:41
MERGED from [androidx.emoji2:emoji2:1.0.0] /Users/zombie/.gradle/caches/transforms-3/4fce621c3882bdffbcbea1f1dbc8cf44/transformed/jetified-emoji2-1.0.0/AndroidManifest.xml:21:5-23:41
MERGED from [androidx.drawerlayout:drawerlayout:1.1.1] /Users/zombie/.gradle/caches/transforms-3/3fdd2a5784d02ffb9720af8d61d0e25e/transformed/drawerlayout-1.1.1/AndroidManifest.xml:20:5-22:41
MERGED from [androidx.drawerlayout:drawerlayout:1.1.1] /Users/zombie/.gradle/caches/transforms-3/3fdd2a5784d02ffb9720af8d61d0e25e/transformed/drawerlayout-1.1.1/AndroidManifest.xml:20:5-22:41
MERGED from [androidx.coordinatorlayout:coordinatorlayout:1.1.0] /Users/zombie/.gradle/caches/transforms-3/72f1edb86185d7afba81373b40b640ca/transformed/coordinatorlayout-1.1.0/AndroidManifest.xml:20:5-22:41
MERGED from [androidx.coordinatorlayout:coordinatorlayout:1.1.0] /Users/zombie/.gradle/caches/transforms-3/72f1edb86185d7afba81373b40b640ca/transformed/coordinatorlayout-1.1.0/AndroidManifest.xml:20:5-22:41
MERGED from [androidx.transition:transition:1.2.0] /Users/zombie/.gradle/caches/transforms-3/d6a072641cb0a272bda5566966213f30/transformed/transition-1.2.0/AndroidManifest.xml:20:5-22:41
MERGED from [androidx.transition:transition:1.2.0] /Users/zombie/.gradle/caches/transforms-3/d6a072641cb0a272bda5566966213f30/transformed/transition-1.2.0/AndroidManifest.xml:20:5-22:41
MERGED from [androidx.vectordrawable:vectordrawable-animated:1.1.0] /Users/zombie/.gradle/caches/transforms-3/931b7ad8fbd8603fb774752e7a2826e3/transformed/vectordrawable-animated-1.1.0/AndroidManifest.xml:20:5-22:41
MERGED from [androidx.vectordrawable:vectordrawable-animated:1.1.0] /Users/zombie/.gradle/caches/transforms-3/931b7ad8fbd8603fb774752e7a2826e3/transformed/vectordrawable-animated-1.1.0/AndroidManifest.xml:20:5-22:41
MERGED from [androidx.vectordrawable:vectordrawable:1.1.0] /Users/zombie/.gradle/caches/transforms-3/ead61f325e6c82de2a8a71d0f3868e51/transformed/vectordrawable-1.1.0/AndroidManifest.xml:20:5-22:41
MERGED from [androidx.vectordrawable:vectordrawable:1.1.0] /Users/zombie/.gradle/caches/transforms-3/ead61f325e6c82de2a8a71d0f3868e51/transformed/vectordrawable-1.1.0/AndroidManifest.xml:20:5-22:41
MERGED from [androidx.viewpager:viewpager:1.0.0] /Users/zombie/.gradle/caches/transforms-3/734f7fbfd7a33e11057ec6d1cce24ba8/transformed/viewpager-1.0.0/AndroidManifest.xml:20:5-44
MERGED from [androidx.viewpager:viewpager:1.0.0] /Users/zombie/.gradle/caches/transforms-3/734f7fbfd7a33e11057ec6d1cce24ba8/transformed/viewpager-1.0.0/AndroidManifest.xml:20:5-44
MERGED from [androidx.recyclerview:recyclerview:1.1.0] /Users/zombie/.gradle/caches/transforms-3/b4d66e64cbb1fe7be002321927572229/transformed/recyclerview-1.1.0/AndroidManifest.xml:20:5-22:41
MERGED from [androidx.recyclerview:recyclerview:1.1.0] /Users/zombie/.gradle/caches/transforms-3/b4d66e64cbb1fe7be002321927572229/transformed/recyclerview-1.1.0/AndroidManifest.xml:20:5-22:41
MERGED from [androidx.customview:customview:1.1.0] /Users/zombie/.gradle/caches/transforms-3/f4b833d2605655b42812b3766bbd174a/transformed/customview-1.1.0/AndroidManifest.xml:20:5-22:41
MERGED from [androidx.customview:customview:1.1.0] /Users/zombie/.gradle/caches/transforms-3/f4b833d2605655b42812b3766bbd174a/transformed/customview-1.1.0/AndroidManifest.xml:20:5-22:41
MERGED from [androidx.core:core:1.7.0] /Users/zombie/.gradle/caches/transforms-3/5197fe32df92ece243b59dccb53a9028/transformed/core-1.7.0/AndroidManifest.xml:20:5-22:41
MERGED from [androidx.core:core:1.7.0] /Users/zombie/.gradle/caches/transforms-3/5197fe32df92ece243b59dccb53a9028/transformed/core-1.7.0/AndroidManifest.xml:20:5-22:41
MERGED from [androidx.lifecycle:lifecycle-process:2.4.0] /Users/zombie/.gradle/caches/transforms-3/b65a18cbb51f5952c077585fa00f182b/transformed/jetified-lifecycle-process-2.4.0/AndroidManifest.xml:21:5-23:41
MERGED from [androidx.lifecycle:lifecycle-process:2.4.0] /Users/zombie/.gradle/caches/transforms-3/b65a18cbb51f5952c077585fa00f182b/transformed/jetified-lifecycle-process-2.4.0/AndroidManifest.xml:21:5-23:41
MERGED from [androidx.lifecycle:lifecycle-runtime:2.4.0] /Users/zombie/.gradle/caches/transforms-3/8539a295d9f384e21f0ee131ed05b667/transformed/lifecycle-runtime-2.4.0/AndroidManifest.xml:20:5-22:41
MERGED from [androidx.lifecycle:lifecycle-runtime:2.4.0] /Users/zombie/.gradle/caches/transforms-3/8539a295d9f384e21f0ee131ed05b667/transformed/lifecycle-runtime-2.4.0/AndroidManifest.xml:20:5-22:41
MERGED from [androidx.documentfile:documentfile:1.0.0] /Users/zombie/.gradle/caches/transforms-3/ba8eee7d7cf5b64fc50cb27953f2a0d7/transformed/documentfile-1.0.0/AndroidManifest.xml:20:5-44
MERGED from [androidx.documentfile:documentfile:1.0.0] /Users/zombie/.gradle/caches/transforms-3/ba8eee7d7cf5b64fc50cb27953f2a0d7/transformed/documentfile-1.0.0/AndroidManifest.xml:20:5-44
MERGED from [androidx.localbroadcastmanager:localbroadcastmanager:1.0.0] /Users/zombie/.gradle/caches/transforms-3/c08aa4cda6e2cbe357fc007997d4a702/transformed/localbroadcastmanager-1.0.0/AndroidManifest.xml:20:5-44
MERGED from [androidx.localbroadcastmanager:localbroadcastmanager:1.0.0] /Users/zombie/.gradle/caches/transforms-3/c08aa4cda6e2cbe357fc007997d4a702/transformed/localbroadcastmanager-1.0.0/AndroidManifest.xml:20:5-44
MERGED from [androidx.print:print:1.0.0] /Users/zombie/.gradle/caches/transforms-3/69499e8304c4b04af572903ed4670a03/transformed/print-1.0.0/AndroidManifest.xml:20:5-44
MERGED from [androidx.print:print:1.0.0] /Users/zombie/.gradle/caches/transforms-3/69499e8304c4b04af572903ed4670a03/transformed/print-1.0.0/AndroidManifest.xml:20:5-44
MERGED from [androidx.cursoradapter:cursoradapter:1.0.0] /Users/zombie/.gradle/caches/transforms-3/405389479ea9f625bbd7861ccbd908f6/transformed/cursoradapter-1.0.0/AndroidManifest.xml:20:5-44
MERGED from [androidx.cursoradapter:cursoradapter:1.0.0] /Users/zombie/.gradle/caches/transforms-3/405389479ea9f625bbd7861ccbd908f6/transformed/cursoradapter-1.0.0/AndroidManifest.xml:20:5-44
MERGED from [androidx.lifecycle:lifecycle-viewmodel:2.3.1] /Users/zombie/.gradle/caches/transforms-3/2dc5e85dc18394964f829402dc2ddb74/transformed/lifecycle-viewmodel-2.3.1/AndroidManifest.xml:20:5-22:41
MERGED from [androidx.lifecycle:lifecycle-viewmodel:2.3.1] /Users/zombie/.gradle/caches/transforms-3/2dc5e85dc18394964f829402dc2ddb74/transformed/lifecycle-viewmodel-2.3.1/AndroidManifest.xml:20:5-22:41
MERGED from [androidx.cardview:cardview:1.0.0] /Users/zombie/.gradle/caches/transforms-3/82f440801e48e5455128c049c93955ec/transformed/cardview-1.0.0/AndroidManifest.xml:20:5-44
MERGED from [androidx.cardview:cardview:1.0.0] /Users/zombie/.gradle/caches/transforms-3/82f440801e48e5455128c049c93955ec/transformed/cardview-1.0.0/AndroidManifest.xml:20:5-44
MERGED from [androidx.versionedparcelable:versionedparcelable:1.1.1] /Users/zombie/.gradle/caches/transforms-3/1cacc9c5cb09ad7f33ddfbb65e1a9031/transformed/versionedparcelable-1.1.1/AndroidManifest.xml:20:5-22:41
MERGED from [androidx.versionedparcelable:versionedparcelable:1.1.1] /Users/zombie/.gradle/caches/transforms-3/1cacc9c5cb09ad7f33ddfbb65e1a9031/transformed/versionedparcelable-1.1.1/AndroidManifest.xml:20:5-22:41
MERGED from [androidx.startup:startup-runtime:1.0.0] /Users/zombie/.gradle/caches/transforms-3/610d0c737f3a947c23fe0c5b3a27fced/transformed/jetified-startup-runtime-1.0.0/AndroidManifest.xml:21:5-23:41
MERGED from [androidx.startup:startup-runtime:1.0.0] /Users/zombie/.gradle/caches/transforms-3/610d0c737f3a947c23fe0c5b3a27fced/transformed/jetified-startup-runtime-1.0.0/AndroidManifest.xml:21:5-23:41
MERGED from [androidx.tracing:tracing:1.0.0] /Users/zombie/.gradle/caches/transforms-3/9a2102b4b5418647a155757962b3bc0d/transformed/jetified-tracing-1.0.0/AndroidManifest.xml:20:5-22:41
MERGED from [androidx.tracing:tracing:1.0.0] /Users/zombie/.gradle/caches/transforms-3/9a2102b4b5418647a155757962b3bc0d/transformed/jetified-tracing-1.0.0/AndroidManifest.xml:20:5-22:41
MERGED from [androidx.arch.core:core-runtime:2.1.0] /Users/zombie/.gradle/caches/transforms-3/8840fd1a06a5d480a85c1fbe7caf68f1/transformed/core-runtime-2.1.0/AndroidManifest.xml:20:5-22:41
MERGED from [androidx.arch.core:core-runtime:2.1.0] /Users/zombie/.gradle/caches/transforms-3/8840fd1a06a5d480a85c1fbe7caf68f1/transformed/core-runtime-2.1.0/AndroidManifest.xml:20:5-22:41
MERGED from [androidx.interpolator:interpolator:1.0.0] /Users/zombie/.gradle/caches/transforms-3/bffecc3ff0a15b9545391213a00f29ef/transformed/interpolator-1.0.0/AndroidManifest.xml:20:5-44
MERGED from [androidx.interpolator:interpolator:1.0.0] /Users/zombie/.gradle/caches/transforms-3/bffecc3ff0a15b9545391213a00f29ef/transformed/interpolator-1.0.0/AndroidManifest.xml:20:5-44
MERGED from [:banuba_effect_player] /Users/zombie/Documents/stellar/evy-live/agora-live-demo/banuba/BNB sdk/Android/BNBEffectPlayer-android_docker-1.4.2/BNBEffectPlayer/src/banuba_effect_player/build/.transforms/ee04396ccdeb7198a414951b0c1977d0/transformed/jetified-banuba_effect_player-release/AndroidManifest.xml:5:5-7:41
MERGED from [:banuba_effect_player] /Users/zombie/Documents/stellar/evy-live/agora-live-demo/banuba/BNB sdk/Android/BNBEffectPlayer-android_docker-1.4.2/BNBEffectPlayer/src/banuba_effect_player/build/.transforms/ee04396ccdeb7198a414951b0c1977d0/transformed/jetified-banuba_effect_player-release/AndroidManifest.xml:5:5-7:41
MERGED from [androidx.annotation:annotation-experimental:1.1.0] /Users/zombie/.gradle/caches/transforms-3/33370bcd2039e7617af68730e87fb55c/transformed/jetified-annotation-experimental-1.1.0/AndroidManifest.xml:20:5-22:41
MERGED from [androidx.annotation:annotation-experimental:1.1.0] /Users/zombie/.gradle/caches/transforms-3/33370bcd2039e7617af68730e87fb55c/transformed/jetified-annotation-experimental-1.1.0/AndroidManifest.xml:20:5-22:41
INJECTED from /Users/zombie/Documents/stellar/evy-live/agora-live-demo/banuba/BNB sdk/Android/BNBEffectPlayer-android_docker-1.4.2/BNBEffectPlayer/src/offscreen/src/main/AndroidManifest.xml
INJECTED from /Users/zombie/Documents/stellar/evy-live/agora-live-demo/banuba/BNB sdk/Android/BNBEffectPlayer-android_docker-1.4.2/BNBEffectPlayer/src/offscreen/src/main/AndroidManifest.xml
	android:targetSdkVersion
		INJECTED from /Users/zombie/Documents/stellar/evy-live/agora-live-demo/banuba/BNB sdk/Android/BNBEffectPlayer-android_docker-1.4.2/BNBEffectPlayer/src/offscreen/src/main/AndroidManifest.xml
		ADDED from /Users/zombie/Documents/stellar/evy-live/agora-live-demo/banuba/BNB sdk/Android/BNBEffectPlayer-android_docker-1.4.2/BNBEffectPlayer/src/offscreen/src/main/AndroidManifest.xml
		INJECTED from /Users/zombie/Documents/stellar/evy-live/agora-live-demo/banuba/BNB sdk/Android/BNBEffectPlayer-android_docker-1.4.2/BNBEffectPlayer/src/offscreen/src/main/AndroidManifest.xml
	android:minSdkVersion
		INJECTED from /Users/zombie/Documents/stellar/evy-live/agora-live-demo/banuba/BNB sdk/Android/BNBEffectPlayer-android_docker-1.4.2/BNBEffectPlayer/src/offscreen/src/main/AndroidManifest.xml
		ADDED from /Users/zombie/Documents/stellar/evy-live/agora-live-demo/banuba/BNB sdk/Android/BNBEffectPlayer-android_docker-1.4.2/BNBEffectPlayer/src/offscreen/src/main/AndroidManifest.xml
		INJECTED from /Users/zombie/Documents/stellar/evy-live/agora-live-demo/banuba/BNB sdk/Android/BNBEffectPlayer-android_docker-1.4.2/BNBEffectPlayer/src/offscreen/src/main/AndroidManifest.xml
uses-permission#android.permission.CAMERA
ADDED from [:banuba_sdk] /Users/zombie/Documents/stellar/evy-live/agora-live-demo/banuba/BNB sdk/Android/BNBEffectPlayer-android_docker-1.4.2/BNBEffectPlayer/src/banuba_sdk/build/intermediates/merged_manifest/debug/AndroidManifest.xml:9:5-65
	android:name
		ADDED from [:banuba_sdk] /Users/zombie/Documents/stellar/evy-live/agora-live-demo/banuba/BNB sdk/Android/BNBEffectPlayer-android_docker-1.4.2/BNBEffectPlayer/src/banuba_sdk/build/intermediates/merged_manifest/debug/AndroidManifest.xml:9:22-62
uses-permission#android.permission.VIBRATE
ADDED from [:banuba_sdk] /Users/zombie/Documents/stellar/evy-live/agora-live-demo/banuba/BNB sdk/Android/BNBEffectPlayer-android_docker-1.4.2/BNBEffectPlayer/src/banuba_sdk/build/intermediates/merged_manifest/debug/AndroidManifest.xml:10:5-66
	android:name
		ADDED from [:banuba_sdk] /Users/zombie/Documents/stellar/evy-live/agora-live-demo/banuba/BNB sdk/Android/BNBEffectPlayer-android_docker-1.4.2/BNBEffectPlayer/src/banuba_sdk/build/intermediates/merged_manifest/debug/AndroidManifest.xml:10:22-63
uses-permission#android.permission.INTERNET
ADDED from [:banuba_sdk] /Users/zombie/Documents/stellar/evy-live/agora-live-demo/banuba/BNB sdk/Android/BNBEffectPlayer-android_docker-1.4.2/BNBEffectPlayer/src/banuba_sdk/build/intermediates/merged_manifest/debug/AndroidManifest.xml:11:5-67
	android:name
		ADDED from [:banuba_sdk] /Users/zombie/Documents/stellar/evy-live/agora-live-demo/banuba/BNB sdk/Android/BNBEffectPlayer-android_docker-1.4.2/BNBEffectPlayer/src/banuba_sdk/build/intermediates/merged_manifest/debug/AndroidManifest.xml:11:22-64
uses-permission#android.permission.RECORD_AUDIO
ADDED from [:banuba_sdk] /Users/zombie/Documents/stellar/evy-live/agora-live-demo/banuba/BNB sdk/Android/BNBEffectPlayer-android_docker-1.4.2/BNBEffectPlayer/src/banuba_sdk/build/intermediates/merged_manifest/debug/AndroidManifest.xml:12:5-71
	android:name
		ADDED from [:banuba_sdk] /Users/zombie/Documents/stellar/evy-live/agora-live-demo/banuba/BNB sdk/Android/BNBEffectPlayer-android_docker-1.4.2/BNBEffectPlayer/src/banuba_sdk/build/intermediates/merged_manifest/debug/AndroidManifest.xml:12:22-68
provider#androidx.startup.InitializationProvider
ADDED from [androidx.emoji2:emoji2:1.0.0] /Users/zombie/.gradle/caches/transforms-3/4fce621c3882bdffbcbea1f1dbc8cf44/transformed/jetified-emoji2-1.0.0/AndroidManifest.xml:26:9-34:20
MERGED from [androidx.lifecycle:lifecycle-process:2.4.0] /Users/zombie/.gradle/caches/transforms-3/b65a18cbb51f5952c077585fa00f182b/transformed/jetified-lifecycle-process-2.4.0/AndroidManifest.xml:26:9-34:20
MERGED from [androidx.lifecycle:lifecycle-process:2.4.0] /Users/zombie/.gradle/caches/transforms-3/b65a18cbb51f5952c077585fa00f182b/transformed/jetified-lifecycle-process-2.4.0/AndroidManifest.xml:26:9-34:20
MERGED from [androidx.startup:startup-runtime:1.0.0] /Users/zombie/.gradle/caches/transforms-3/610d0c737f3a947c23fe0c5b3a27fced/transformed/jetified-startup-runtime-1.0.0/AndroidManifest.xml:26:9-30:34
MERGED from [androidx.startup:startup-runtime:1.0.0] /Users/zombie/.gradle/caches/transforms-3/610d0c737f3a947c23fe0c5b3a27fced/transformed/jetified-startup-runtime-1.0.0/AndroidManifest.xml:26:9-30:34
	tools:node
		ADDED from [androidx.emoji2:emoji2:1.0.0] /Users/zombie/.gradle/caches/transforms-3/4fce621c3882bdffbcbea1f1dbc8cf44/transformed/jetified-emoji2-1.0.0/AndroidManifest.xml:30:13-31
	android:authorities
		ADDED from [androidx.emoji2:emoji2:1.0.0] /Users/zombie/.gradle/caches/transforms-3/4fce621c3882bdffbcbea1f1dbc8cf44/transformed/jetified-emoji2-1.0.0/AndroidManifest.xml:28:13-68
	android:exported
		ADDED from [androidx.emoji2:emoji2:1.0.0] /Users/zombie/.gradle/caches/transforms-3/4fce621c3882bdffbcbea1f1dbc8cf44/transformed/jetified-emoji2-1.0.0/AndroidManifest.xml:29:13-37
	android:name
		ADDED from [androidx.emoji2:emoji2:1.0.0] /Users/zombie/.gradle/caches/transforms-3/4fce621c3882bdffbcbea1f1dbc8cf44/transformed/jetified-emoji2-1.0.0/AndroidManifest.xml:27:13-67
meta-data#androidx.emoji2.text.EmojiCompatInitializer
ADDED from [androidx.emoji2:emoji2:1.0.0] /Users/zombie/.gradle/caches/transforms-3/4fce621c3882bdffbcbea1f1dbc8cf44/transformed/jetified-emoji2-1.0.0/AndroidManifest.xml:31:13-33:52
	android:value
		ADDED from [androidx.emoji2:emoji2:1.0.0] /Users/zombie/.gradle/caches/transforms-3/4fce621c3882bdffbcbea1f1dbc8cf44/transformed/jetified-emoji2-1.0.0/AndroidManifest.xml:33:17-49
	android:name
		ADDED from [androidx.emoji2:emoji2:1.0.0] /Users/zombie/.gradle/caches/transforms-3/4fce621c3882bdffbcbea1f1dbc8cf44/transformed/jetified-emoji2-1.0.0/AndroidManifest.xml:32:17-75
meta-data#androidx.lifecycle.ProcessLifecycleInitializer
ADDED from [androidx.lifecycle:lifecycle-process:2.4.0] /Users/zombie/.gradle/caches/transforms-3/b65a18cbb51f5952c077585fa00f182b/transformed/jetified-lifecycle-process-2.4.0/AndroidManifest.xml:31:13-33:52
	android:value
		ADDED from [androidx.lifecycle:lifecycle-process:2.4.0] /Users/zombie/.gradle/caches/transforms-3/b65a18cbb51f5952c077585fa00f182b/transformed/jetified-lifecycle-process-2.4.0/AndroidManifest.xml:33:17-49
	android:name
		ADDED from [androidx.lifecycle:lifecycle-process:2.4.0] /Users/zombie/.gradle/caches/transforms-3/b65a18cbb51f5952c077585fa00f182b/transformed/jetified-lifecycle-process-2.4.0/AndroidManifest.xml:32:17-78
